Data Visualisation: Vast Challenge 2021 Assignment
…
Rows: 1,392
Columns: 4
$ timestamp  <date> 2014-01-06, 2014-01-06, 2014-01-06, 2014-01-06, ~
$ location   <chr> "Brew've Been Served", "Brew've Been Served", "Ha~
$ price      <dbl> 4.17, 9.60, 16.53, 11.51, 12.93, 4.27, 11.20, 15.~
$ loyaltynum <fct> L2247, L9406, L8328, L6417, L1107, L4034, L6110, ~

split into day, date and time

cc_dtsplit <- cc %>%
  mutate(day = date_weekday_factor(cc$timestamp), date =  as_date(cc$timestamp), time = format(cc$timestamp, format = "%H:%M"))

cc_dtsplit

# A tibble: 1,490 x 7
   timestamp           location      price last4ccnum day   date      
   <dttm>              <chr>         <dbl> <fct>      <ord> <date>    
 1 2014-01-06 07:28:00 Brew've Been~ 11.3  4795       Mon   2014-01-06
 2 2014-01-06 07:34:00 Hallowed Gro~ 52.2  7108       Mon   2014-01-06
 3 2014-01-06 07:35:00 Brew've Been~  8.33 6816       Mon   2014-01-06
 4 2014-01-06 07:36:00 Hallowed Gro~ 16.7  9617       Mon   2014-01-06
 5 2014-01-06 07:37:00 Brew've Been~  4.24 7384       Mon   2014-01-06
 6 2014-01-06 07:38:00 Brew've Been~  4.17 5368       Mon   2014-01-06
 7 2014-01-06 07:42:00 Coffee Camel~ 28.7  7253       Mon   2014-01-06
 8 2014-01-06 07:43:00 Brew've Been~  9.6  4948       Mon   2014-01-06
 9 2014-01-06 07:43:00 Brew've Been~ 16.9  9683       Mon   2014-01-06
10 2014-01-06 07:47:00 Hallowed Gro~ 16.5  8129       Mon   2014-01-06
# ... with 1,480 more rows, and 1 more variable: time <chr>
…
loyalty_recode <- mutate(loyalty, location = recode(location, "Katerinas Caf" = "Katerina's Cafe"))

cc_dtsplit

# A tibble: 1,490 x 7
   timestamp           location      price last4ccnum day   date      
   <dttm>              <chr>         <dbl> <fct>      <ord> <date>    
 1 2014-01-06 07:28:00 Brew've Been~ 11.3  4795       Mon   2014-01-06
 2 2014-01-06 07:34:00 Hallowed Gro~ 52.2  7108       Mon   2014-01-06
 3 2014-01-06 07:35:00 Brew've Been~  8.33 6816       Mon   2014-01-06
 4 2014-01-06 07:36:00 Hallowed Gro~ 16.7  9617       Mon   2014-01-06
 5 2014-01-06 07:37:00 Brew've Been~  4.24 7384       Mon   2014-01-06
 6 2014-01-06 07:38:00 Brew've Been~  4.17 5368       Mon   2014-01-06
 7 2014-01-06 07:42:00 Coffee Camel~ 28.7  7253       Mon   2014-01-06
 8 2014-01-06 07:43:00 Brew've Been~  9.6  4948       Mon   2014-01-06
 9 2014-01-06 07:43:00 Brew've Been~ 16.9  9683       Mon   2014-01-06
10 2014-01-06 07:47:00 Hallowed Gro~ 16.5  8129       Mon   2014-01-06
# ... with 1,480 more rows, and 1 more variable: time <chr>
…
making time into groups of 15 min - optional

#cc_modified <- cc_recode %>%
  #mutate(time_15 = cut(timestamp, breaks="15 min"))

To further examine the anomaly, we will first inner join both the cc and loyalty card data by using the date, location and price column to find the identity of the cc and loyalty card.

inner join

cc_loyalty_join <- cc_dtsplit %>%
  inner_join(loyalty_dt, by = c("date","location", "price"))

cc_loyalty_join

# A tibble: 1,087 x 8
   timestamp           location      price last4ccnum day   date      
   <dttm>              <chr>         <dbl> <fct>      <ord> <date>    
 1 2014-01-06 07:28:00 Brew've Been~ 11.3  4795       Mon   2014-01-06
 2 2014-01-06 07:35:00 Brew've Been~  8.33 6816       Mon   2014-01-06
 3 2014-01-06 07:36:00 Hallowed Gro~ 16.7  9617       Mon   2014-01-06
 4 2014-01-06 07:37:00 Brew've Been~  4.24 7384       Mon   2014-01-06
 5 2014-01-06 07:38:00 Brew've Been~  4.17 5368       Mon   2014-01-06
 6 2014-01-06 07:43:00 Brew've Been~  9.6  4948       Mon   2014-01-06
 7 2014-01-06 07:43:00 Brew've Been~ 16.9  9683       Mon   2014-01-06
 8 2014-01-06 07:47:00 Hallowed Gro~ 16.5  8129       Mon   2014-01-06
 9 2014-01-06 07:48:00 Hallowed Gro~ 10.7  3492       Mon   2014-01-06
10 2014-01-06 07:49:00 Coffee Camel~  8.39 5921       Mon   2014-01-06
# ... with 1,077 more rows, and 2 more variables: time <chr>,
#   loyaltynum <fct>

After joining the dataset, we found that there are 1087 rows of data available. This means that some of the credit card purchases are not linked to any of the loyalty card, vice versa, some of the loyalty card are not linked to the credit card purchases. These strengthen the anomaly we have highlighted before.

Before we begin further analysis on further anomalies between the two datasets. We shall conduct some exploratory data analysis. First, we will analyse the most popular place visited during the duration of study.

cc_location_count <- cc_loyalty_join %>%
  group_by(location) %>%
  summarize(count = n()) %>%
  arrange(desc(count))

cc_location_count

# A tibble: 32 x 2
   location               count
   <chr>                  <int>
 1 "Katerina\u0012s Cafi"   155
 2 "Guy's Gyros"            121
 3 "Hippokampos"            117
 4 "Brew've Been Served"    111
 5 "Ouzeri Elian"            62
 6 "Hallowed Grounds"        60
 7 "Kalami Kafenion"         53
 8 "Abila Zacharo"           52
 9 "Gelatogalore"            48
10 "Bean There Done That"    36
# ... with 22 more rows
…
cc_join

From the chart above, we can observe that Katerines Cafe" (155 counts), Guys Gyros (121 counts), Hippokampos (117 counts), Brewve Been Serve (111 counts) have the most visitation during the period of study.

cc_loyalty_group <- cc_loyalty_join %>%
  group_by(location,date,day,time) %>%
  summarize(count = n()) %>%
  arrange(desc(count))

cc_loyalty_group

# A tibble: 992 x 5
# Groups:   location, date, day [270]
   location             date       day   time  count
   <chr>                <date>     <ord> <chr> <int>
 1 Bean There Done That 2014-01-13 Mon   12:00     6
 2 Bean There Done That 2014-01-06 Mon   12:00     5
 3 Bean There Done That 2014-01-10 Fri   12:00     5
 4 Bean There Done That 2014-01-17 Fri   12:00     5
 5 Bean There Done That 2014-01-16 Thu   12:00     4
 6 Guy's Gyros          2014-01-19 Sun   19:45     4
 7 Jack's Magical Beans 2014-01-13 Mon   12:00     4
 8 Jack's Magical Beans 2014-01-16 Thu   12:00     4
 9 Bean There Done That 2014-01-14 Tue   12:00     3
10 Bean There Done That 2014-01-15 Wed   12:00     3
# ... with 982 more rows

cc_loyalty_day <- cc_loyalty_join %>%
  unite(col = "daytime", day,time, sep = " ",  remove =FALSE) %>%
  group_by(location, daytime) %>%
  summarize(count = n()) %>%
  arrange(desc(count))

cc_loyalty_day

# A tibble: 937 x 3
# Groups:   location [32]
   location             daytime   count
   <chr>                <chr>     <int>
 1 Bean There Done That Mon 12:00    11
 2 Bean There Done That Fri 12:00    10
 3 Jack's Magical Beans Mon 12:00     7
 4 Bean There Done That Thu 12:00     6
 5 Jack's Magical Beans Thu 12:00     6
 6 Bean There Done That Wed 12:00     5
 7 Brewed Awakenings    Fri 12:00     5
 8 Brewed Awakenings    Mon 12:00     5
 9 Jack's Magical Beans Fri 12:00     5
10 Jack's Magical Beans Wed 12:00     5
# ... with 927 more rows
…
cc_day

Based on the joined data between cc and

cc_loyalty_top4 <- cc_loyalty_group %>%
  filter(count >= 3) %>%
  ungroup()

cc_loyalty_filter <- cc_loyalty_group %>%
  filter(location %in% c("Bean There Done That", "Guy's Gyros", "Jack's Magical Beans"))

cc_loyalty_filter

# A tibble: 135 x 5
# Groups:   location, date, day [33]
   location             date       day   time  count
   <chr>                <date>     <ord> <chr> <int>
 1 Bean There Done That 2014-01-13 Mon   12:00     6
 2 Bean There Done That 2014-01-06 Mon   12:00     5
 3 Bean There Done That 2014-01-10 Fri   12:00     5
 4 Bean There Done That 2014-01-17 Fri   12:00     5
 5 Bean There Done That 2014-01-16 Thu   12:00     4
 6 Guy's Gyros          2014-01-19 Sun   19:45     4
 7 Jack's Magical Beans 2014-01-13 Mon   12:00     4
 8 Jack's Magical Beans 2014-01-16 Thu   12:00     4
 9 Bean There Done That 2014-01-14 Tue   12:00     3
10 Bean There Done That 2014-01-15 Wed   12:00     3
# ... with 125 more rows
…
cc_timeseries

anti_join

cc_loyalty_antijoin <- cc_dtsplit %>%
  anti_join(loyalty_dt, by = c("date","location", "price"))

cc_loyalty_antijoin

# A tibble: 409 x 7
   timestamp           location      price last4ccnum day   date      
   <dttm>              <chr>         <dbl> <fct>      <ord> <date>    
 1 2014-01-06 07:34:00 Hallowed Gr~ 5.22e1 7108       Mon   2014-01-06
 2 2014-01-06 07:42:00 Coffee Came~ 2.87e1 7253       Mon   2014-01-06
 3 2014-01-06 07:52:00 Brew've Bee~ 3.28e1 9405       Mon   2014-01-06
 4 2014-01-06 07:54:00 Hallowed Gr~ 1.69e1 7889       Mon   2014-01-06
 5 2014-01-06 07:54:00 Hallowed Gr~ 3.29e1 2681       Mon   2014-01-06
 6 2014-01-06 08:00:00 Hallowed Gr~ 9.69e0 6691       Mon   2014-01-06
 7 2014-01-06 08:14:00 Coffee Came~ 3.2 e0 2418       Mon   2014-01-06
 8 2014-01-06 12:00:00 Coffee Shack 5.15e1 7117       Mon   2014-01-06
 9 2014-01-06 12:00:00 Jack's Magi~ 2.78e1 8156       Mon   2014-01-06
10 2014-01-06 12:16:00 Abila Airpo~ 1.87e3 8642       Mon   2014-01-06
# ... with 399 more rows, and 1 more variable: time <chr>
…
cc_anti

cc_loyalty_day_anti <- cc_loyalty_antijoin %>%
  unite(col = "daytime", day,time, sep = " ",  remove =FALSE) %>%
  group_by(location, daytime) %>%
  summarize(count = n()) %>%
  arrange(desc(count))

cc_loyalty_day_anti

# A tibble: 379 x 3
# Groups:   location [31]
   location             daytime   count
   <chr>                <chr>     <int>
 1 Bean There Done That Tue 12:00     5
 2 Jack's Magical Beans Tue 12:00     4
 3 Bean There Done That Wed 12:00     3
 4 Brewed Awakenings    Tue 12:00     3
 5 Hallowed Grounds     Thu 07:51     3
 6 Hallowed Grounds     Wed 07:39     3
 7 Jack's Magical Beans Thu 12:00     3
 8 Jack's Magical Beans Wed 12:00     3
 9 Bean There Done That Thu 12:00     2
10 Brew've Been Served  Fri 07:56     2
# ... with 369 more rows
…
cc_anti_timeseries

cc_loyalty_anti_group <- cc_loyalty_antijoin %>%
  group_by(location, day, date, time) %>%
  summarize(count = n()) %>%
  arrange(desc(count)) %>%
  ungroup()

cc_loyalty_anti_group

# A tibble: 391 x 5
   location             day   date       time  count
   <chr>                <ord> <date>     <chr> <int>
 1 Bean There Done That Tue   2014-01-07 12:00     3
 2 Brewed Awakenings    Tue   2014-01-07 12:00     3
 3 Jack's Magical Beans Thu   2014-01-09 12:00     3
 4 Bean There Done That Tue   2014-01-14 12:00     2
 5 Bean There Done That Wed   2014-01-08 12:00     2
 6 Brew've Been Served  Fri   2014-01-10 07:56     2
 7 Guy's Gyros          Tue   2014-01-07 20:10     2
 8 Hallowed Grounds     Mon   2014-01-06 07:54     2
 9 Hallowed Grounds     Wed   2014-01-08 07:39     2
10 Hallowed Grounds     Thu   2014-01-16 07:51     2
# ... with 381 more rows

subplot(cc_day, cc_anti_day, nrows = 1, shareY = TRUE)

#right anti join. loyalty anti join cc

cc_loyalty_antijoin_right <- loyalty_dt%>%
  anti_join(cc_dtsplit, by = c("date","location", "price")) %>%
  ungroup()

cc_loyalty_antijoin_mutate <- cc_loyalty_antijoin_right %>%
  mutate(day = date_weekday_factor(cc_loyalty_antijoin_right$date))

cc_loyalty_antijoin_mutate

# A tibble: 311 x 5
   date       location                    price loyaltynum day  
   <date>     <chr>                       <dbl> <fct>      <ord>
 1 2014-01-06 "Coffee Shack"              11.5  L6417      Mon  
 2 2014-01-06 "Hallowed Grounds"          12.9  L1107      Mon  
 3 2014-01-06 "Abila Zacharo"             26.9  L9018      Mon  
 4 2014-01-06 "Katerina\u0012s Cafi"      38.6  L6110      Mon  
 5 2014-01-06 "Frydos Autosupply n' More" 89.3  L4034      Mon  
 6 2014-01-07 "Hallowed Grounds"           8.42 L1107      Tue  
 7 2014-01-07 "Coffee Cameleon"           12.4  L9018      Tue  
 8 2014-01-07 "Ouzeri Elian"              17.7  L2247      Tue  
 9 2014-01-07 "Katerina\u0012s Cafi"      25.0  L2343      Tue  
10 2014-01-08 "Brew've Been Served"       14.9  L2247      Wed  
# ... with 301 more rows
…
cc_anti_right

cc_loyalty_day_anti_right <- cc_loyalty_antijoin_mutate %>%
  group_by(location, date,day) %>%
  summarize(count = n()) %>%
  arrange(desc(count)) %>%
  ungroup()

cc_loyalty_day_anti_right

# A tibble: 161 x 4
   location               date       day   count
   <chr>                  <date>     <ord> <int>
 1 "Hallowed Grounds"     2014-01-09 Thu       6
 2 "Brew've Been Served"  2014-01-08 Wed       5
 3 "Brew've Been Served"  2014-01-09 Thu       5
 4 "Brew've Been Served"  2014-01-10 Fri       5
 5 "Guy's Gyros"          2014-01-15 Wed       5
 6 "Hippokampos"          2014-01-10 Fri       5
 7 "Katerina\u0012s Cafi" 2014-01-13 Mon       5
 8 "Katerina\u0012s Cafi" 2014-01-14 Tue       5
 9 "Katerina\u0012s Cafi" 2014-01-16 Thu       5
10 "Abila Zacharo"        2014-01-13 Mon       4
# ... with 151 more rows
…
car_unite <- car %>%
  unite(col = "name", LastName,FirstName, sep = ", ",  remove =FALSE) 

as.factor(car_unite$CarID)

 [1] 1    2    3    4    5    6    7    8    9    10   11   12   13  
[14] 14   15   16   17   18   19   20   21   22   23   24   25   26  
[27] 27   28   29   30   31   32   33   34   35   <NA> <NA> <NA> <NA>
[40] <NA> <NA> <NA> <NA> <NA>
35 Levels: 1 2 3 4 5 6 7 8 9 10 11 12 13 14 15 16 17 18 19 20 ... 35

car_unite

# A tibble: 44 x 6
   name    LastName  FirstName CarID CurrentEmployme~ CurrentEmployme~
   <chr>   <chr>     <chr>     <dbl> <chr>            <chr>           
 1 Calixt~ Calixto   Nils          1 Information Tec~ IT Helpdesk     
 2 Azada,~ Azada     Lars          2 Engineering      Engineer        
 3 Balas,~ Balas     Felix         3 Engineering      Engineer        
 4 Barran~ Barranco  Ingrid        4 Executive        SVP/CFO         
 5 Baza, ~ Baza      Isak          5 Information Tec~ IT Technician   
 6 Bergen~ Bergen    Linnea        6 Information Tec~ IT Group Manager
 7 Orilla~ Orilla    Elsa          7 Engineering      Drill Technician
 8 Alcaza~ Alcazar   Lucas         8 Information Tec~ IT Technician   
 9 Cazar,~ Cazar     Gustav        9 Engineering      Drill Technician
10 Campo-~ Campo-Co~ Ada          10 Executive        SVP/CIO         
# ... with 34 more rows
…
inner join gps to car-assignment

In order for us to match the car assignment person to the gps data. We will inner join the data.

Notice that there is only a total of 613077 dataset. This shows that some of the vehicles recorded are not part of the car_assignment data. I.e. vehicles apart from the car assignees has been tracked too.

gps_car <- gps_rename %>%
  inner_join(car_unite, by = "CarID") %>%
  arrange(timestamp)

gps_car

# A tibble: 613,077 x 9
   timestamp           CarID   lat  long name       LastName FirstName
   <dttm>              <dbl> <dbl> <dbl> <chr>      <chr>    <chr>    
 1 2014-01-06 06:28:00    35  36.1  24.9 Vasco-Pai~ Vasco-P~ Willem   
 2 2014-01-06 06:28:00    35  36.1  24.9 Vasco-Pai~ Vasco-P~ Willem   
 3 2014-01-06 06:28:00    35  36.1  24.9 Vasco-Pai~ Vasco-P~ Willem   
 4 2014-01-06 06:28:00    35  36.1  24.9 Vasco-Pai~ Vasco-P~ Willem   
 5 2014-01-06 06:28:00    35  36.1  24.9 Vasco-Pai~ Vasco-P~ Willem   
 6 2014-01-06 06:28:00    35  36.1  24.9 Vasco-Pai~ Vasco-P~ Willem   
 7 2014-01-06 06:28:00    35  36.1  24.9 Vasco-Pai~ Vasco-P~ Willem   
 8 2014-01-06 06:28:00    35  36.1  24.9 Vasco-Pai~ Vasco-P~ Willem   
 9 2014-01-06 06:28:00    35  36.1  24.9 Vasco-Pai~ Vasco-P~ Willem   
10 2014-01-06 06:28:00    35  36.1  24.9 Vasco-Pai~ Vasco-P~ Willem   
# ... with 613,067 more rows, and 2 more variables:
#   CurrentEmploymentType <chr>, CurrentEmploymentTitle <chr>

If we look at the above data, we can see that during one minute, the gps data varies a lot. This tell us that during one minute, the car moves around quite a fair bit.

Next, we will anti join both the car and gps datasets to sieve out those vehicle movement that are not part of the car assignees data.

gps_car_anti <- gps_rename %>%
  anti_join(car_unite, by = "CarID")

gps_car_anti

# A tibble: 72,092 x 4
   timestamp           CarID   lat  long
   <dttm>              <dbl> <dbl> <dbl>
 1 2014-01-06 07:36:00   101  36.0  24.9
 2 2014-01-06 07:36:00   101  36.0  24.9
 3 2014-01-06 07:36:00   101  36.0  24.9
 4 2014-01-06 07:36:00   101  36.0  24.9
 5 2014-01-06 07:36:00   101  36.0  24.9
 6 2014-01-06 07:36:00   101  36.0  24.9
 7 2014-01-06 07:36:00   101  36.0  24.9
 8 2014-01-06 07:36:00   101  36.0  24.9
 9 2014-01-06 07:36:00   101  36.0  24.9
10 2014-01-06 07:36:00   101  36.0  24.9
# ... with 72,082 more rows

Taking a look at the above data. You will notice that the CarID starts from 101 to 107 which are not part of the id that were assigned to the respective employees.

Going back to the background of this assignment. We will observe that GAStech do provide trucks for official business use. As such, we will assume that those vehicle with CarID of 101 to 107 are trucks.

These trucks will later be used for examination to see if they were used for personal used.

revisit cc_loyalty_join

cc_loyalty_join %>%
  arrange(timestamp)

# A tibble: 1,087 x 8
   timestamp           location      price last4ccnum day   date      
   <dttm>              <chr>         <dbl> <fct>      <ord> <date>    
 1 2014-01-06 07:28:00 Brew've Been~ 11.3  4795       Mon   2014-01-06
 2 2014-01-06 07:35:00 Brew've Been~  8.33 6816       Mon   2014-01-06
 3 2014-01-06 07:36:00 Hallowed Gro~ 16.7  9617       Mon   2014-01-06
 4 2014-01-06 07:37:00 Brew've Been~  4.24 7384       Mon   2014-01-06
 5 2014-01-06 07:38:00 Brew've Been~  4.17 5368       Mon   2014-01-06
 6 2014-01-06 07:43:00 Brew've Been~  9.6  4948       Mon   2014-01-06
 7 2014-01-06 07:43:00 Brew've Been~ 16.9  9683       Mon   2014-01-06
 8 2014-01-06 07:47:00 Hallowed Gro~ 16.5  8129       Mon   2014-01-06
 9 2014-01-06 07:48:00 Hallowed Gro~ 10.7  3492       Mon   2014-01-06
10 2014-01-06 07:49:00 Coffee Camel~  8.39 5921       Mon   2014-01-06
# ... with 1,077 more rows, and 2 more variables: time <chr>,
#   loyaltynum <fct>
…
Next, we will take a look at the last few rows of both joined dataset. We will see that the gps data ends at 2014-01-19, 20:56:00 while the cc_loyalty data stops at 2014-01-19, 20:51:00. There is a difference of 6 mins.

Now, we will filter out those data before 2014-01-06 07:28:00 to take a look at the CarID

gps_car_filter <- gps_car %>%
  filter(timestamp < "2014-01-06 07:00:00")

gps_car_filter

# A tibble: 379 x 9
   timestamp           CarID   lat  long name       LastName FirstName
   <dttm>              <dbl> <dbl> <dbl> <chr>      <chr>    <chr>    
 1 2014-01-06 06:28:00    35  36.1  24.9 Vasco-Pai~ Vasco-P~ Willem   
 2 2014-01-06 06:28:00    35  36.1  24.9 Vasco-Pai~ Vasco-P~ Willem   
 3 2014-01-06 06:28:00    35  36.1  24.9 Vasco-Pai~ Vasco-P~ Willem   
 4 2014-01-06 06:28:00    35  36.1  24.9 Vasco-Pai~ Vasco-P~ Willem   
 5 2014-01-06 06:28:00    35  36.1  24.9 Vasco-Pai~ Vasco-P~ Willem   
 6 2014-01-06 06:28:00    35  36.1  24.9 Vasco-Pai~ Vasco-P~ Willem   
 7 2014-01-06 06:28:00    35  36.1  24.9 Vasco-Pai~ Vasco-P~ Willem   
 8 2014-01-06 06:28:00    35  36.1  24.9 Vasco-Pai~ Vasco-P~ Willem   
 9 2014-01-06 06:28:00    35  36.1  24.9 Vasco-Pai~ Vasco-P~ Willem   
10 2014-01-06 06:28:00    35  36.1  24.9 Vasco-Pai~ Vasco-P~ Willem   
# ... with 369 more rows, and 2 more variables:
#   CurrentEmploymentType <chr>, CurrentEmploymentTitle <chr>
…
