Vast Challenge 2021 Assignment
…
Rows: 1,392
Columns: 4
$ timestamp  <date> 2014-01-06, 2014-01-06, 2014-01-06, 2014-01-06, ~
$ location   <chr> "Brew've Been Served", "Brew've Been Served", "Ha~
$ price      <dbl> 4.17, 9.60, 16.53, 11.51, 12.93, 4.27, 11.20, 15.~
$ loyaltynum <fct> L2247, L9406, L8328, L6417, L1107, L4034, L6110, ~

split into day, date and time

# A tibble: 1,490 x 7
   timestamp           location      price last4ccnum day   date      
   <dttm>              <chr>         <dbl> <fct>      <ord> <date>    
 1 2014-01-06 07:28:00 Brew've Been~ 11.3  4795       Mon   2014-01-06
 2 2014-01-06 07:34:00 Hallowed Gro~ 52.2  7108       Mon   2014-01-06
 3 2014-01-06 07:35:00 Brew've Been~  8.33 6816       Mon   2014-01-06
 4 2014-01-06 07:36:00 Hallowed Gro~ 16.7  9617       Mon   2014-01-06
 5 2014-01-06 07:37:00 Brew've Been~  4.24 7384       Mon   2014-01-06
 6 2014-01-06 07:38:00 Brew've Been~  4.17 5368       Mon   2014-01-06
 7 2014-01-06 07:42:00 Coffee Camel~ 28.7  7253       Mon   2014-01-06
 8 2014-01-06 07:43:00 Brew've Been~  9.6  4948       Mon   2014-01-06
 9 2014-01-06 07:43:00 Brew've Been~ 16.9  9683       Mon   2014-01-06
10 2014-01-06 07:47:00 Hallowed Gro~ 16.5  8129       Mon   2014-01-06
# ... with 1,480 more rows, and 1 more variable: time <chr>
…
# A tibble: 1,490 x 7
   timestamp           location      price last4ccnum day   date      
   <dttm>              <chr>         <dbl> <fct>      <ord> <date>    
 1 2014-01-06 07:28:00 Brew've Been~ 11.3  4795       Mon   2014-01-06
 2 2014-01-06 07:34:00 Hallowed Gro~ 52.2  7108       Mon   2014-01-06
 3 2014-01-06 07:35:00 Brew've Been~  8.33 6816       Mon   2014-01-06
 4 2014-01-06 07:36:00 Hallowed Gro~ 16.7  9617       Mon   2014-01-06
 5 2014-01-06 07:37:00 Brew've Been~  4.24 7384       Mon   2014-01-06
 6 2014-01-06 07:38:00 Brew've Been~  4.17 5368       Mon   2014-01-06
 7 2014-01-06 07:42:00 Coffee Camel~ 28.7  7253       Mon   2014-01-06
 8 2014-01-06 07:43:00 Brew've Been~  9.6  4948       Mon   2014-01-06
 9 2014-01-06 07:43:00 Brew've Been~ 16.9  9683       Mon   2014-01-06
10 2014-01-06 07:47:00 Hallowed Gro~ 16.5  8129       Mon   2014-01-06
# ... with 1,480 more rows, and 1 more variable: time <chr>
…
Rows: 1,392
Columns: 4
$ date       <date> 2014-01-06, 2014-01-06, 2014-01-06, 2014-01-06, ~
$ location   <chr> "Brew've Been Served", "Brew've Been Served", "Ha~
$ price      <dbl> 4.17, 9.60, 16.53, 11.51, 12.93, 4.27, 11.20, 15.~
$ loyaltynum <fct> L2247, L9406, L8328, L6417, L1107, L4034, L6110, ~

making time into groups of 15 min - optional

inner join

# A tibble: 932 x 8
   timestamp           location      price last4ccnum day   date      
   <dttm>              <chr>         <dbl> <fct>      <ord> <date>    
 1 2014-01-06 07:28:00 Brew've Been~ 11.3  4795       Mon   2014-01-06
 2 2014-01-06 07:35:00 Brew've Been~  8.33 6816       Mon   2014-01-06
 3 2014-01-06 07:36:00 Hallowed Gro~ 16.7  9617       Mon   2014-01-06
 4 2014-01-06 07:37:00 Brew've Been~  4.24 7384       Mon   2014-01-06
 5 2014-01-06 07:38:00 Brew've Been~  4.17 5368       Mon   2014-01-06
 6 2014-01-06 07:43:00 Brew've Been~  9.6  4948       Mon   2014-01-06
 7 2014-01-06 07:43:00 Brew've Been~ 16.9  9683       Mon   2014-01-06
 8 2014-01-06 07:47:00 Hallowed Gro~ 16.5  8129       Mon   2014-01-06
 9 2014-01-06 07:48:00 Hallowed Gro~ 10.7  3492       Mon   2014-01-06
10 2014-01-06 07:49:00 Coffee Camel~  8.39 5921       Mon   2014-01-06
# ... with 922 more rows, and 2 more variables: time <chr>,
#   loyaltynum <fct>

Notice that after we have inner join both the cleaned dataset. There is only 932 rows while the orignal cc_dtsplit and has 1490 and loyalty_dt has 1392. This anomalies suggested that some of the people that uses their credit card did not use their loyalty card during purchases.

Before we begin further analysis on further anomalies between the two datasets. We shall conduct some exploratory data analysis. First, we will analyse the most popular place visited during the duration of study.

# A tibble: 31 x 2
   location                  count
   <chr>                     <int>
 1 Guy's Gyros                 121
 2 Hippokampos                 117
 3 Brew've Been Served         111
 4 Ouzeri Elian                 62
 5 Hallowed Grounds             60
 6 Kalami Kafenion              53
 7 Abila Zacharo                52
 8 Gelatogalore                 48
 9 Bean There Done That         36
10 Frydos Autosupply n' More    34
# ... with 21 more rows

From the chart above, we can observe that â€œGuyâ€™s Gyrosâ€, â€œHippokamposâ€, â€œBrewâ€™ve Been Serveâ€ have the most vistitation during the period of study.

# A tibble: 843 x 5
# Groups:   location, date, day [256]
   location             date       day   time  count
   <chr>                <date>     <ord> <chr> <int>
 1 Bean There Done That 2014-01-13 Mon   12:00     6
 2 Bean There Done That 2014-01-06 Mon   12:00     5
 3 Bean There Done That 2014-01-10 Fri   12:00     5
 4 Bean There Done That 2014-01-17 Fri   12:00     5
 5 Bean There Done That 2014-01-16 Thu   12:00     4
 6 Guy's Gyros          2014-01-19 Sun   19:45     4
 7 Jack's Magical Beans 2014-01-13 Mon   12:00     4
 8 Jack's Magical Beans 2014-01-16 Thu   12:00     4
 9 Bean There Done That 2014-01-14 Tue   12:00     3
10 Bean There Done That 2014-01-15 Wed   12:00     3
# ... with 833 more rows

# A tibble: 793 x 3
# Groups:   location [31]
   location             daytime   count
   <chr>                <chr>     <int>
 1 Bean There Done That Mon 12:00    11
 2 Bean There Done That Fri 12:00    10
 3 Jack's Magical Beans Mon 12:00     7
 4 Bean There Done That Thu 12:00     6
 5 Jack's Magical Beans Thu 12:00     6
 6 Bean There Done That Wed 12:00     5
 7 Brewed Awakenings    Fri 12:00     5
 8 Brewed Awakenings    Mon 12:00     5
 9 Jack's Magical Beans Fri 12:00     5
10 Jack's Magical Beans Wed 12:00     5
# ... with 783 more rows

# A tibble: 135 x 5
# Groups:   location, date, day [33]
   location             date       day   time  count
   <chr>                <date>     <ord> <chr> <int>
 1 Bean There Done That 2014-01-13 Mon   12:00     6
 2 Bean There Done That 2014-01-06 Mon   12:00     5
 3 Bean There Done That 2014-01-10 Fri   12:00     5
 4 Bean There Done That 2014-01-17 Fri   12:00     5
 5 Bean There Done That 2014-01-16 Thu   12:00     4
 6 Guy's Gyros          2014-01-19 Sun   19:45     4
 7 Jack's Magical Beans 2014-01-13 Mon   12:00     4
 8 Jack's Magical Beans 2014-01-16 Thu   12:00     4
 9 Bean There Done That 2014-01-14 Tue   12:00     3
10 Bean There Done That 2014-01-15 Wed   12:00     3
# ... with 125 more rows

anti_join

# A tibble: 932 x 8
   timestamp           location      price last4ccnum day   date      
   <dttm>              <chr>         <dbl> <fct>      <ord> <date>    
 1 2014-01-06 07:28:00 Brew've Been~ 11.3  4795       Mon   2014-01-06
 2 2014-01-06 07:35:00 Brew've Been~  8.33 6816       Mon   2014-01-06
 3 2014-01-06 07:36:00 Hallowed Gro~ 16.7  9617       Mon   2014-01-06
 4 2014-01-06 07:37:00 Brew've Been~  4.24 7384       Mon   2014-01-06
 5 2014-01-06 07:38:00 Brew've Been~  4.17 5368       Mon   2014-01-06
 6 2014-01-06 07:43:00 Brew've Been~  9.6  4948       Mon   2014-01-06
 7 2014-01-06 07:43:00 Brew've Been~ 16.9  9683       Mon   2014-01-06
 8 2014-01-06 07:47:00 Hallowed Gro~ 16.5  8129       Mon   2014-01-06
 9 2014-01-06 07:48:00 Hallowed Gro~ 10.7  3492       Mon   2014-01-06
10 2014-01-06 07:49:00 Coffee Camel~  8.39 5921       Mon   2014-01-06
# ... with 922 more rows, and 2 more variables: time <chr>,
#   loyaltynum <fct>

# A tibble: 519 x 3
# Groups:   location [31]
   location               daytime   count
   <chr>                  <chr>     <int>
 1 "Bean There Done That" Tue 12:00     5
 2 "Jack's Magical Beans" Tue 12:00     4
 3 "Bean There Done That" Wed 12:00     3
 4 "Brewed Awakenings"    Tue 12:00     3
 5 "Hallowed Grounds"     Thu 07:51     3
 6 "Hallowed Grounds"     Wed 07:39     3
 7 "Jack's Magical Beans" Thu 12:00     3
 8 "Jack's Magical Beans" Wed 12:00     3
 9 "Katerina\u0012s Cafi" Thu 13:27     3
10 "Bean There Done That" Thu 12:00     2
# ... with 509 more rows

# A tibble: 540 x 5
   location             day   date       time  count
   <chr>                <ord> <date>     <chr> <int>
 1 Bean There Done That Tue   2014-01-07 12:00     3
 2 Brewed Awakenings    Tue   2014-01-07 12:00     3
 3 Jack's Magical Beans Thu   2014-01-09 12:00     3
 4 Bean There Done That Tue   2014-01-14 12:00     2
 5 Bean There Done That Wed   2014-01-08 12:00     2
 6 Brew've Been Served  Fri   2014-01-10 07:56     2
 7 Guy's Gyros          Tue   2014-01-07 20:10     2
 8 Hallowed Grounds     Mon   2014-01-06 07:54     2
 9 Hallowed Grounds     Wed   2014-01-08 07:39     2
10 Hallowed Grounds     Thu   2014-01-16 07:51     2
# ... with 530 more rows
